<?xml version="1.0" encoding="utf-8"?>
<!-- Generator: Adobe Illustrator 28.3.0, SVG Export Plug-In . SVG Version: 6.00 Build 0)  -->
<svg version="1.1" id="Master_Logos" xmlns="http://www.w3.org/2000/svg" xmlns:xlink="http://www.w3.org/1999/xlink" x="0px"
	 y="0px" viewBox="0 0 223.3 220.1" style="enable-background:new 0 0 223.3 220.1;" xml:space="preserve">
<style type="text/css">
	.st0{fill:#FFFFFF;}
</style>
<g id="oUgagp.tif">
	<path class="st0" d="M12.4,0h198.9c7.2,2.7,10.4,7.8,10.4,15.6c-0.1,63.2-0.1,126.4-0.1,189.6c0,11.6-5.7,15.8-19.1,14.6
		c-12.5-1.1-25-1.3-37.4,0c-8.3,0.9-10.7,0.4-10.6-5.7c0.2-24,0.1-48,0.1-72c0-4.3,2.1-6.5,6.4-6.5c7.3,0,14.6,0,21.9,0
		c1.5-10.3,2.7-19.8,4.2-29.3c0.6-4-0.8-5.6-5-5.5c-7.3,0.2-14.7-0.1-22,0.1c-3.8,0.1-5.6-1-5.4-4.9c0.2-4.4,0.2-8.8,0.1-13.2
		c-0.4-13.6,3.2-17.9,16-17.9c5.7,0,11.3,0,17.1,0V33.4c-12.1,0-24.1-1.5-35.5,0.3c-21.3,3.4-33.4,19.3-33.5,41c0,8.6,0,17.2,0,26.2
		c-8.3,0-16.2,0-24,0c-3.5,0-5.9,0.8-4.8,6.6c1.3,6.9,1.3,14,0.1,20.9c-1,5.7,0.2,7.3,4.2,7.2c6.5-0.2,13.1,0.1,19.6-0.1
		c3.8-0.2,5,1,5,5c-0.2,25-0.1,50-0.1,74.9c0,1.4-0.2,2.8-0.4,4.6c-2.4,0-4.3,0-6.2,0c-30.9,0-61.7-0.2-92.6,0.1
		c-8.5,0.1-15.1-1.7-18-10.5V11.9c0-0.7,0.1-1.4,0.4-2.1C4,5,7.5,1.8,12.4,0L12.4,0z"/>
</g>
</svg>
