<?xml version="1.0" encoding="utf-8"?>
<!-- Generator: Adobe Illustrator 28.2.0, SVG Export Plug-In . SVG Version: 6.00 Build 0)  -->
<svg version="1.1" id="OJ2024_svg" xmlns="http://www.w3.org/2000/svg" xmlns:xlink="http://www.w3.org/1999/xlink" x="0px" y="0px"
	 viewBox="0 0 1778.5 880.2" style="enable-background:new 0 0 1778.5 880.2;" xml:space="preserve">
<style type="text/css">
	.st0{fill:#FFFFFF;}
	.st1{enable-background:new    ;}
</style>
<path class="st0" d="M1116.3,45.2l-144.9-0.5L974,492c0,77.8-64,145.3-143.6,145.3h-3.1c-27.4,0-49.4-6.1-69.1-17.7
	c-24.1,42.9-55.3,81.3-91.8,113.8c46.5,31.8,100,48.4,160.1,48.4h4.9c159.7,0,287.6-126.6,287.6-288.9L1116.3,45.2L1116.3,45.2z"/>
<path class="st0" d="M374.8,30C168.6,30,0,199.1,0,406.1s168.6,373.4,374.3,373.4S750,611.4,750,406.1S580.9,30,374.8,30z
	 M374.3,632.9c-125.7,0-228.1-102.4-228.1-227.6s102.4-229,228.1-229s229,102.9,229,229S500.4,632.9,374.3,632.9L374.3,632.9z"/>
<g class="st1">
	<path class="st0" d="M1473.6,297.2v63.7h-239.2v-11.6C1351.5,243.2,1405,187.2,1405,152.9c0-30.2-24.5-51.7-44.6-51.7
		c-29,0-54.4,24.8-54.4,55.4l-58-14.8c0-57.6,50.5-104.5,110.2-104.5c61.1,0,110.8,53.4,110.8,112.2c0,52.3-53.1,115-98.6,147.7
		H1473.6z"/>
	<path class="st0" d="M1501.2,202c0-96.4,53.1-164.7,131.9-164.7c78.7,0,131.5,68.2,131.5,164.7c0,96.2-52.9,164.5-131.5,164.5
		C1554.3,366.4,1501.2,298.2,1501.2,202z M1700.6,202c0-58.8-26.4-100.4-67.8-100.4s-67.8,41.6-67.8,100.4c0,58.6,26.4,100,67.8,100
		S1700.6,260.5,1700.6,202z"/>
</g>
<g class="st1">
	<path class="st0" d="M1473.6,704.7v63.7h-239.2v-11.6C1351.5,650.7,1405,594.7,1405,560.3c0-30.2-24.5-51.7-44.6-51.7
		c-29,0-54.4,24.8-54.4,55.4l-58-14.8c0-57.6,50.5-104.5,110.2-104.5c61.1,0,110.8,53.4,110.8,112.2c0,52.3-53.1,115-98.6,147.7
		H1473.6z"/>
	<path class="st0" d="M1751.1,700.2h-31.9v68.2h-63.7v-68.2h-163.9l108.7-251.1l67.3,0.4l-80.9,187h68.8v-88.2h63.7v88.2h31.9V700.2
		z"/>
</g>
</svg>
